    0 CP100
    1 CP150
    2 CP472
    7 IF260
    8 C300
    9 C200
   12 PP2010
   13 MP100
   16 CPU332
   32 CP104
   33 CP152
   34 CP470
   41 C150
   41 P150
   64 CP200
   65 XP152
   66 CP474
   73 C210
   96 IF100
   97 IP151
   98 CP772
  105 C220
  128 IF101
  129 IF152
  130 CP770
  160 CP210
  161 CP15X
  162 CP774
  193 CP153
  225 CP260
