------------------------------------------------------------------------
Datei:         BrInfo.com
Datum:         24.07.2000
Beschreibung:  BIOS-Setup-Information des P2000
------------------------------------------------------------------------

	Mit diesem Programm werden die BIOS-Setup- und
	BIOS-Features-Einstellungen auf die Stdout ausgedruckt.

	Aufruf: brinfo 	-p

	Parameter       -p      Gibt nun die Informationen auf
				das Stdout aus. Mit "brinfo -p >> datei"
				wird die Information auf eine Datei
				gelenkt.
			-?      Hilfstext

Copyright (c) by B&R
------------------------------------------------------------------------
Bernecker & Rainer, Industrie Elektronik Ges.m.b.H
A-5142 Eggelsberg 120, Austria
Tel: +43 7748 6586 0
Fax: +43 7748 6586 26
Web: http://www.br-automation.com
------------------------------------------------------------------------